// Jest Snapshot v1, https://goo.gl/fbAQLP

exports[`OnDemandScansSiteProfileSelector renders properly with profiles 1`] = `
<div
  class="gl-card"
  data-foo="bar"
  value="gid://gitlab/DastSiteProfile/1"
>
  <div
    class="gl-card-header"
  >
    <div
      class="row"
    >
      <div
        class="col-7 gl-display-flex gl-align-items-center"
      >
        <h3
          class="gl-font-lg gl-my-0"
        >
          Site profile
        </h3>
      </div>
       
      <div
        class="col-5 gl-text-right"
      >
        <a
          class="btn btn-success btn-sm gl-button btn-success-secondary"
          data-testid="manage-profiles-link"
          href="/test/site/profiles/library/path"
        >
          <!---->
           
          <!---->
            
          <span
            class="gl-button-text"
          >
            
          Manage profiles
        
          </span>
        </a>
      </div>
    </div>
  </div>
   
  <div
    class="gl-card-body"
  >
     
    <fieldset
      class="form-group gl-form-group"
    >
      <legend
        class="bv-no-focus-ring col-form-label pt-0 col-form-label"
        tabindex="-1"
      >
        Use existing site profile
      </legend>
      <div
        class="bv-no-focus-ring"
        role="group"
        tabindex="-1"
      >
         
        <div
          class="dropdown b-dropdown gl-new-dropdown mw-460 btn-group"
          data-testid="profiles-dropdown"
        >
          <!---->
          <button
            aria-expanded="false"
            aria-haspopup="true"
            class="btn dropdown-toggle btn-default btn-md gl-button gl-dropdown-toggle"
            type="button"
          >
            <!---->
             
            <!---->
             
            <span
              class="gl-new-dropdown-button-text"
            >
              Site profile #1: https://foo.com (Not Validated)
            </span>
             
            <svg
              aria-hidden="true"
              class="gl-button-icon dropdown-chevron gl-icon s16"
              data-testid="chevron-down-icon"
            >
              <use
                href="#chevron-down"
              />
            </svg>
          </button>
          <ul
            class="dropdown-menu"
            role="menu"
            tabindex="-1"
          >
            <div
              class="gl-new-dropdown-inner"
            >
              <!---->
               
              <div
                class="gl-new-dropdown-contents"
              >
                <li
                  class="gl-new-dropdown-item"
                  role="presentation"
                >
                  <button
                    class="dropdown-item"
                    role="menuitem"
                    type="button"
                  >
                    <svg
                      aria-hidden="true"
                      class="gl-icon s16 gl-new-dropdown-item-check-icon"
                      data-testid="mobile-issue-close-icon"
                    >
                      <use
                        href="#mobile-issue-close"
                      />
                    </svg>
                     
                    <!---->
                     
                    <!---->
                     
                    <div
                      class="gl-new-dropdown-item-text-wrapper"
                    >
                      <p
                        class="gl-new-dropdown-item-text-primary"
                      >
                        
        Site profile #1
      
                      </p>
                       
                      <!---->
                    </div>
                     
                    <!---->
                  </button>
                </li>
                <li
                  class="gl-new-dropdown-item"
                  role="presentation"
                >
                  <button
                    class="dropdown-item"
                    role="menuitem"
                    type="button"
                  >
                    <svg
                      aria-hidden="true"
                      class="gl-icon s16 gl-new-dropdown-item-check-icon gl-visibility-hidden"
                      data-testid="mobile-issue-close-icon"
                    >
                      <use
                        href="#mobile-issue-close"
                      />
                    </svg>
                     
                    <!---->
                     
                    <!---->
                     
                    <div
                      class="gl-new-dropdown-item-text-wrapper"
                    >
                      <p
                        class="gl-new-dropdown-item-text-primary"
                      >
                        
        Site profile #2
      
                      </p>
                       
                      <!---->
                    </div>
                     
                    <!---->
                  </button>
                </li>
              </div>
               
              <!---->
            </div>
             
          </ul>
        </div>
         
        <div
          class="gl-mt-6 gl-pt-6 gl-border-t-solid gl-border-gray-100 gl-border-t-1"
          data-testid="selected-profile-summary"
        >
          <div>
            Site profile #1's summary
          </div>
        </div>
        <!---->
        <!---->
        <!---->
      </div>
    </fieldset>
  </div>
   
  <!---->
</div>
`;

exports[`OnDemandScansSiteProfileSelector renders properly without profiles 1`] = `
<div
  class="gl-card"
  data-foo="bar"
>
  <div
    class="gl-card-header"
  >
    <div
      class="row"
    >
      <div
        class="col-7 gl-display-flex gl-align-items-center"
      >
        <h3
          class="gl-font-lg gl-my-0"
        >
          Site profile
        </h3>
      </div>
       
      <div
        class="col-5 gl-text-right"
      >
        <button
          class="btn btn-success btn-sm disabled gl-button btn-success-secondary"
          data-testid="manage-profiles-link"
          disabled="disabled"
          type="button"
        >
          <!---->
           
          <!---->
            
          <span
            class="gl-button-text"
          >
            
          Manage profiles
        
          </span>
        </button>
      </div>
    </div>
  </div>
   
  <div
    class="gl-card-body"
  >
     
    <p
      class="gl-text-gray-700"
    >
      No profile yet. In order to create a new scan, you need to have at least one completed site profile.
    </p>
     
    <a
      class="btn btn-success btn-md gl-button btn-success-secondary"
      data-testid="create-profile-link"
      href="/test/new/site/profile/path"
    >
      <!---->
       
      <!---->
        
      <span
        class="gl-button-text"
      >
        Create a new site profile
      </span>
    </a>
  </div>
   
  <!---->
</div>
`;
